The input array is: 4 8 0 1 7 6 2 6 10 3 6 6 7 1 0 12 6 11 
Pairs for (0, 12): [2 15] [14 15] 
Pairs for (1, 11): [3 17] [13 17] 
Pairs for (2, 10): [6 8] 
No pair for 3 and 9
Pairs for (4, 8): [0 1] 
No pair for 5 and 7
There are 5 entries for 6: [5] [7] [10] [11] [16]. Therefore, there are 10 unique pairs of 6
